[
null,
{"id":1,"displayType":2,"effectName":"HitPhysical","flashTimings":[{"frame":0,"duration":30,"color":[255,255,255,255]}],"name":"Hit Physical","offsetX":0,"offsetY":0,"rotation":{"x":0,"y":0,"z":0},"scale":50,"soundTimings":[{"frame":0,"se":{"name":"Blow1","pan":0,"pitch":100,"volume":90}}],"speed":100,"timings":[]},
{"id":2,"displayType":0,"effectName":"SlashPhysical","flashTimings":[],"name":"sword slash","offsetX":0,"offsetY":0,"rotation":{"x":0,"y":0,"z":0},"scale":100,"soundTimings":[],"speed":100,"timings":[]},
{"id":3,"displayType":2,"effectName":"DarknessAll3","flashTimings":[],"name":"dark call","offsetX":0,"offsetY":0,"rotation":{"x":0,"y":0,"z":0},"scale":100,"soundTimings":[],"speed":100,"timings":[]},
{"id":4,"displayType":0,"effectName":"","flashTimings":[],"name":"","offsetX":0,"offsetY":0,"rotation":{"x":0,"y":0,"z":0},"scale":100,"soundTimings":[],"speed":100},
{"id":5,"displayType":0,"effectName":"","flashTimings":[],"name":"","offsetX":0,"offsetY":0,"rotation":{"x":0,"y":0,"z":0},"scale":100,"soundTimings":[],"speed":100},
{"id":6,"displayType":0,"effectName":"","flashTimings":[],"name":"","offsetX":0,"offsetY":0,"rotation":{"x":0,"y":0,"z":0},"scale":100,"soundTimings":[],"speed":100},
{"id":7,"displayType":0,"effectName":"","flashTimings":[],"name":"","offsetX":0,"offsetY":0,"rotation":{"x":0,"y":0,"z":0},"scale":100,"soundTimings":[],"speed":100},
{"id":8,"displayType":0,"effectName":"","flashTimings":[],"name":"","offsetX":0,"offsetY":0,"rotation":{"x":0,"y":0,"z":0},"scale":100,"soundTimings":[],"speed":100},
{"id":9,"displayType":0,"effectName":"","flashTimings":[],"name":"","offsetX":0,"offsetY":0,"rotation":{"x":0,"y":0,"z":0},"scale":100,"soundTimings":[],"speed":100},
{"id":10,"displayType":0,"effectName":"","flashTimings":[],"name":"","offsetX":0,"offsetY":0,"rotation":{"x":0,"y":0,"z":0},"scale":100,"soundTimings":[],"speed":100}
]